Final Project
…
# Calculate the mortality rate and recovery rate for each county
df_new <- df_new %>%
  mutate(
    DeathRate = (ConfirmedDeaths / ConfirmedCases) * 100, # Calculate the death rate
    RecoveryRate = (ConfirmedRecovered / ConfirmedCases) * 100 # Calculate the recovery rate
  )

# Handle possible NaN or Inf values (when ConfirmedCases is 0)
df_new$DeathRate[is.na(df_new$DeathRate) | is.infinite(df_new$DeathRate)] <- 0
df_new$RecoveryRate[is.na(df_new$RecoveryRate) | is.infinite(df_new$RecoveryRate)] <- 0

# Display the modified dataset
print(df_new)

# A tibble: 26 × 12
   County   Population   Lat  Long ConfirmedCases PopulationProportion
   <chr>         <int> <dbl> <dbl>          <int>                <dbl>
 1 Carlow        56932  52.7 -6.84          24490               43016.
 2 Cavan         76176  54.0 -7.29          27412               35985.
 3 Clare        118817  52.9 -8.99          40549               34127.
 4 Cork         542868  52.0 -8.64         175960               32413.
 5 Donegal      159192  54.9 -7.96          62321               39148.
 6 Dublin      1347359  53.4 -6.29         512494               38037.
 7 Galway       258058  53.4 -8.74          93061               36062.
 8 Kerry        147707  52.2 -9.56          46949               31785.
 9 Kildare      222504  53.2 -6.78          85501               38427.
10 Kilkenny      99232  52.6 -7.22          33514               33773.
# ℹ 16 more rows
# ℹ 6 more variables: ConfirmedDeaths <int>, ConfirmedRecovered <int>,
#   Date <date>, Time <chr>, DeathRate <dbl>, RecoveryRate <dbl>
…
df_new

# A tibble: 26 × 12
   County   Population   Lat  Long ConfirmedCases PopulationProportion
   <chr>         <int> <dbl> <dbl>          <int>                <dbl>
 1 Carlow        56932  52.7 -6.84          24490               43016.
 2 Cavan         76176  54.0 -7.29          27412               35985.
 3 Clare        118817  52.9 -8.99          40549               34127.
 4 Cork         542868  52.0 -8.64         175960               32413.
 5 Donegal      159192  54.9 -7.96          62321               39148.
 6 Dublin      1347359  53.4 -6.29         512494               38037.
 7 Galway       258058  53.4 -8.74          93061               36062.
 8 Kerry        147707  52.2 -9.56          46949               31785.
 9 Kildare      222504  53.2 -6.78          85501               38427.
10 Kilkenny      99232  52.6 -7.22          33514               33773.
# ℹ 16 more rows
# ℹ 6 more variables: ConfirmedDeaths <int>, ConfirmedRecovered <int>,
#   Date <date>, Time <chr>, DeathRate <dbl>, RecoveryRate <dbl>
…
[1] "County with the most cases: Dublin - 512494 cases"

print(paste("County with the least cases:", least_cases$County, "-", least_cases$ConfirmedCases, "cases"))

[1] "County with the least cases: Leitrim - 10755 cases"

# Sort by the number of confirmed cases in ascending order
df_sorted <- df_new[order(df_new$ConfirmedCases), c("County", "ConfirmedCases")]

# Print the sorted counties and case numbers
print(df_sorted)

# A tibble: 26 × 2
   County    ConfirmedCases
   <chr>              <int>
 1 Leitrim            10755
 2 Longford           15576
 3 Sligo              21934
 4 Roscommon          23198
 5 Monaghan           23554
 6 Carlow             24490
 7 Cavan              27412
 8 Offaly             28335
 9 Laois              30581
10 Kilkenny           33514
# ℹ 16 more rows
…
